a:3:{s:5:"token";s:13:"60706fef079eb";s:7:"user_id";s:13:"60706fef09bda";s:9:"expiredIn";O:17:"DateTimeImmutable":3:{s:4:"date";s:26:"2021-04-10 15:17:03.031219";s:13:"timezone_type";i:3;s:8:"timezone";s:3:"UTC";}}
a:3:{s:5:"token";s:13:"6070705398664";s:7:"user_id";s:13:"60707053993f9";s:9:"expiredIn";O:17:"DateTimeImmutable":3:{s:4:"date";s:26:"2021-04-10 15:18:43.624235";s:13:"timezone_type";i:3;s:8:"timezone";s:3:"UTC";}}
a:3:{s:5:"token";s:13:"60707098623cd";s:7:"user_id";s:13:"607070986313b";s:9:"expiredIn";O:17:"DateTimeImmutable":3:{s:4:"date";s:26:"2021-04-10 15:19:52.402388";s:13:"timezone_type";i:3;s:8:"timezone";s:3:"UTC";}}
a:3:{s:5:"token";s:13:"6070716e92c8e";s:7:"user_id";s:13:"6070716e99055";s:9:"expiredIn";O:17:"DateTimeImmutable":3:{s:4:"date";s:26:"2021-04-10 15:23:26.601241";s:13:"timezone_type";i:3;s:8:"timezone";s:3:"UTC";}}
a:3:{s:5:"token";s:13:"60a2a12504bec";s:7:"user_id";s:13:"60a2a12504bda";s:9:"expiredIn";O:17:"DateTimeImmutable":3:{s:4:"date";s:26:"2021-05-18 17:00:21.019450";s:13:"timezone_type";i:3;s:8:"timezone";s:3:"UTC";}}
a:3:{s:5:"token";s:13:"60a2a147cabc8";s:7:"user_id";s:13:"60a2a147cabb0";s:9:"expiredIn";O:17:"DateTimeImmutable":3:{s:4:"date";s:26:"2021-05-18 17:00:55.830473";s:13:"timezone_type";i:3;s:8:"timezone";s:3:"UTC";}}
a:3:{s:5:"token";s:13:"60a2a1647c2dd";s:7:"user_id";N;s:9:"expiredIn";O:17:"DateTimeImmutable":3:{s:4:"date";s:26:"2021-05-18 17:01:24.508676";s:13:"timezone_type";i:3;s:8:"timezone";s:3:"UTC";}}
a:3:{s:5:"token";s:13:"60a2b7bebead7";s:7:"user_id";s:13:"60a2b7bebeac7";s:9:"expiredIn";O:17:"DateTimeImmutable":3:{s:4:"date";s:26:"2021-05-18 18:36:46.781029";s:13:"timezone_type";i:3;s:8:"timezone";s:3:"UTC";}}
a:3:{s:5:"token";s:13:"60a2b7cfd29e2";s:7:"user_id";s:13:"60a2b7cfd29d3";s:9:"expiredIn";O:17:"DateTimeImmutable":3:{s:4:"date";s:26:"2021-05-18 18:37:03.862728";s:13:"timezone_type";i:3;s:8:"timezone";s:3:"UTC";}}
a:3:{s:5:"token";s:13:"60a5310faef9f";s:7:"user_id";s:13:"60a5310faef94";s:9:"expiredIn";O:17:"DateTimeImmutable":3:{s:4:"date";s:26:"2021-05-20 15:38:55.716713";s:13:"timezone_type";i:3;s:8:"timezone";s:3:"UTC";}}
a:3:{s:5:"token";s:13:"60a5311a0a8fd";s:7:"user_id";s:13:"60a5311a0a8ef";s:9:"expiredIn";O:17:"DateTimeImmutable":3:{s:4:"date";s:26:"2021-05-20 15:39:06.043284";s:13:"timezone_type";i:3;s:8:"timezone";s:3:"UTC";}}
a:3:{s:5:"token";s:13:"60db169f9565f";s:7:"user_id";s:13:"60db169f9565b";s:9:"expiredIn";O:17:"DateTimeImmutable":3:{s:4:"date";s:26:"2021-06-30 12:48:31.611936";s:13:"timezone_type";i:3;s:8:"timezone";s:3:"UTC";}}
a:3:{s:5:"token";s:13:"60f19206d0d8c";s:7:"user_id";s:13:"60f19206d0d89";s:9:"expiredIn";O:17:"DateTimeImmutable":3:{s:4:"date";s:26:"2021-07-17 14:04:54.855437";s:13:"timezone_type";i:3;s:8:"timezone";s:3:"UTC";}}
a:3:{s:5:"token";s:13:"60f192163f64e";s:7:"user_id";s:13:"60f192163f64a";s:9:"expiredIn";O:17:"DateTimeImmutable":3:{s:4:"date";s:26:"2021-07-17 14:05:10.259663";s:13:"timezone_type";i:3;s:8:"timezone";s:3:"UTC";}}
a:3:{s:5:"token";s:13:"60f193af63518";s:7:"user_id";s:13:"60f193af63515";s:9:"expiredIn";O:17:"DateTimeImmutable":3:{s:4:"date";s:26:"2021-07-17 14:11:59.406809";s:13:"timezone_type";i:3;s:8:"timezone";s:3:"UTC";}}
a:3:{s:5:"token";s:13:"60f194d9679d7";s:7:"user_id";s:13:"60f194d9679d4";s:9:"expiredIn";O:17:"DateTimeImmutable":3:{s:4:"date";s:26:"2021-07-17 14:16:57.424408";s:13:"timezone_type";i:3;s:8:"timezone";s:3:"UTC";}}
a:3:{s:5:"token";s:13:"60f1955a3b22e";s:7:"user_id";s:13:"60f1955a3b22c";s:9:"expiredIn";O:17:"DateTimeImmutable":3:{s:4:"date";s:26:"2021-07-17 14:19:06.242224";s:13:"timezone_type";i:3;s:8:"timezone";s:3:"UTC";}}
a:3:{s:5:"token";s:13:"60f195831abbd";s:7:"user_id";s:13:"60f195831abb9";s:9:"expiredIn";O:17:"DateTimeImmutable":3:{s:4:"date";s:26:"2021-07-17 14:19:47.109503";s:13:"timezone_type";i:3;s:8:"timezone";s:3:"UTC";}}
a:3:{s:5:"token";s:13:"60f195a23b914";s:7:"user_id";s:13:"60f195a23b912";s:9:"expiredIn";O:17:"DateTimeImmutable":3:{s:4:"date";s:26:"2021-07-17 14:20:18.243989";s:13:"timezone_type";i:3;s:8:"timezone";s:3:"UTC";}}
a:3:{s:5:"token";s:13:"60f196c5591ee";s:7:"user_id";s:13:"60f196c5591ea";s:9:"expiredIn";O:17:"DateTimeImmutable":3:{s:4:"date";s:26:"2021-07-17 14:25:09.365038";s:13:"timezone_type";i:3;s:8:"timezone";s:3:"UTC";}}
a:3:{s:5:"token";s:13:"60f197303b710";s:7:"user_id";s:13:"60f197303b70b";s:9:"expiredIn";O:17:"DateTimeImmutable":3:{s:4:"date";s:26:"2021-07-17 14:26:56.243473";s:13:"timezone_type";i:3;s:8:"timezone";s:3:"UTC";}}
a:3:{s:5:"token";s:13:"60f19d1e77d04";s:7:"user_id";s:13:"60f19d1e77d02";s:9:"expiredIn";O:17:"DateTimeImmutable":3:{s:4:"date";s:26:"2021-07-17 14:52:14.490757";s:13:"timezone_type";i:3;s:8:"timezone";s:3:"UTC";}}
a:3:{s:5:"token";s:13:"60f1acb630241";s:7:"user_id";s:13:"60f1acb63023e";s:9:"expiredIn";O:17:"DateTimeImmutable":3:{s:4:"date";s:26:"2021-07-17 15:58:46.197186";s:13:"timezone_type";i:3;s:8:"timezone";s:3:"UTC";}}
a:3:{s:5:"token";s:13:"60f2eefdb6544";s:7:"user_id";s:13:"60f2eefdb6541";s:9:"expiredIn";O:17:"DateTimeImmutable":3:{s:4:"date";s:26:"2021-07-18 14:53:49.746821";s:13:"timezone_type";i:3;s:8:"timezone";s:3:"UTC";}}
a:3:{s:5:"token";s:13:"60f2f4ca4acd4";s:7:"user_id";s:13:"60f2f4ca4acd1";s:9:"expiredIn";O:17:"DateTimeImmutable":3:{s:4:"date";s:26:"2021-07-18 15:18:34.306389";s:13:"timezone_type";i:3;s:8:"timezone";s:3:"UTC";}}
a:3:{s:5:"token";s:13:"60f30becbc1e0";s:7:"user_id";s:13:"60f30becbc1de";s:9:"expiredIn";O:17:"DateTimeImmutable":3:{s:4:"date";s:26:"2021-07-18 16:57:16.770529";s:13:"timezone_type";i:3;s:8:"timezone";s:3:"UTC";}}
a:3:{s:5:"token";s:13:"60f30c49636bd";s:7:"user_id";s:13:"60f30c49636b8";s:9:"expiredIn";O:17:"DateTimeImmutable":3:{s:4:"date";s:26:"2021-07-18 16:58:49.407231";s:13:"timezone_type";i:3;s:8:"timezone";s:3:"UTC";}}
a:3:{s:5:"token";s:13:"60f30eea3f143";s:7:"user_id";s:13:"60f30eea3f140";s:9:"expiredIn";O:17:"DateTimeImmutable":3:{s:4:"date";s:26:"2021-07-18 17:10:02.258372";s:13:"timezone_type";i:3;s:8:"timezone";s:3:"UTC";}}
a:3:{s:5:"token";s:13:"60f5dc2b4bcf4";s:7:"user_id";s:13:"60f5dc2b4bcea";s:9:"expiredIn";O:17:"DateTimeImmutable":3:{s:4:"date";s:26:"2021-07-20 20:10:19.310525";s:13:"timezone_type";i:3;s:8:"timezone";s:3:"UTC";}}
a:3:{s:5:"token";s:13:"60f5def104f68";s:7:"user_id";s:13:"60f5def104f60";s:9:"expiredIn";O:17:"DateTimeImmutable":3:{s:4:"date";s:26:"2021-07-20 20:22:09.020337";s:13:"timezone_type";i:3;s:8:"timezone";s:3:"UTC";}}
a:3:{s:5:"token";s:13:"60f5e168cf2e3";s:7:"user_id";s:13:"60f5e168cf2dc";s:9:"expiredIn";O:17:"DateTimeImmutable":3:{s:4:"date";s:26:"2021-07-20 20:32:40.848621";s:13:"timezone_type";i:3;s:8:"timezone";s:3:"UTC";}}
a:3:{s:5:"token";s:13:"60f5e427813b1";s:7:"user_id";s:13:"60f5e427813a7";s:9:"expiredIn";O:17:"DateTimeImmutable":3:{s:4:"date";s:26:"2021-07-20 20:44:23.529336";s:13:"timezone_type";i:3;s:8:"timezone";s:3:"UTC";}}
a:3:{s:5:"token";s:13:"60f5ea7d3ca9a";s:7:"user_id";s:13:"60f5ea7d3ca90";s:9:"expiredIn";O:17:"DateTimeImmutable":3:{s:4:"date";s:26:"2021-07-20 21:11:25.248482";s:13:"timezone_type";i:3;s:8:"timezone";s:3:"UTC";}}